…
#>        <int> <int>   <int>  <int> <chr> <chr>  <chr> <chr> <chr>      <chr>     
#> 1          1     1       1      0 NA    man    Hisp… older professio… prior exp…
#> 2          1     1       2      1 NA    man    Black older teacher    prior exp…
#> 3          1     2       1      1 Inde… man    Black youn… business   prior exp…
#> 4          1     2       2      0 Inde… woman  Hisp… older business   prior exp…
#> 5          1     3       1      1 NA    man    Hisp… youn… NA         prior exp…
#> 6          1     3       2      0 NA    man    Hisp… youn… working c… prior exp…
#> # ℹ 1 more variable: resp_party <chr>
# reshape to task-wide, then extract a partisan matchup
tasks <- as_tasks(kc_yougov,
                  task_keys = c("respondent", "task"),
                  profile = "profile", outcome = "chosen")
get_matchups(tasks, A = list(party = "Democrat"),
             B = list(party = "Republican"), outcome = "chosen")
#> # A tibble: 582 × 3
#>    respondent  task A_wins
#>         <int> <int>  <int>
#>  1          3     4      0
#>  2          6     4      0
#>  3          8     1      0
#>  4          9     4      0
#>  5         10     2      0
#>  6         12     5      0
#>  7         14     1      0
#>  8         14     4      0
#>  9         16     2      1
#> 10         16     3      1
#> # ℹ 572 more rows
```
